<?xml version="1.0" encoding="utf-8"?>
<!-- Generator: Adobe Illustrator 19.2.1, SVG Export Plug-In . SVG Version: 6.00 Build 0)  -->
<svg version="1.1" id="Layer_1" xmlns="http://www.w3.org/2000/svg" xmlns:xlink="http://www.w3.org/1999/xlink" x="0px" y="0px"
	 viewBox="0 0 710 200" style="enable-background:new 0 0 710 200;" xml:space="preserve">
<style type="text/css">
	.st0{fill:#FFFFFF;}
</style>
<g transform="translate(0.000000,200.000000) scale(0.100000,-0.100000)">
	<path class="st0" d="M2418,1103c-3-502-1-483-77-566c-23-25-64-54-92-66c-48-21-62-22-332-19c-310,3-306,3-382,70
		c-34,29-75,94-75,118c0,7,131,10,405,10h405v83c0,156-46,264-159,378c-115,115-221,159-386,159c-105,0-185-18-265-61
		c-103-55-214-180-251-281c-7-21-16-38-19-38c-4,0-14,17-22,38c-38,94-162,217-268,265c-108,49-260,62-373,32
		c-188-49-349-209-398-395c-7-27-13-168-16-352l-5-308h140h141l3,303c3,287,4,304,25,342c113,212,412,199,510-22c15-32,18-82,21-330
		l4-293h134h134v156v156l41-61c83-125,213-211,357-237c105-18,519-18,624,0c95,17,189,63,261,126l54,49l24-25
		c114-122,304-181,482-151c117,20,205,65,288,147c106,105,150,197,168,357c11,104,32,151,88,204c46,45,88,66,142,75l41,7v133v134
		h-38c-102,0-239-60-330-145c-108-100-155-194-173-352c-14-114-27-149-76-204c-51-57-104-81-188-87c-91-6-156,20-219,88
		c-64,68-76,117-76,312v158h140h140v115v115h-140h-140v155v155h-134h-135L2418,1103z M1805,989c53-14,110-54,135-94
		c11-18,20-35,20-39c0-3-108-6-240-6s-240,4-240,9c0,4,18,29,40,54C1586,988,1699,1018,1805,989z"/>
	<path class="st0" d="M5968,1103c-3-499-1-482-75-563c-21-24-60-54-88-66c-47-22-62-24-230-24c-99,0-197,5-217,10
		c-53,15-118,68-153,125c-25,41-31,61-34,127c-3,69,0,85,23,133c29,58,64,93,130,128c32,17,58,22,121,22c80,0,113-11,181-60
		c21-15,24-12,102,92l81,108l-27,22c-43,35-132,80-196,98c-82,24-258,17-335-13c-123-48-236-148-297-265l-36-69l-31,63
		c-21,44-54,88-106,140c-115,115-222,159-386,159c-156,0-274-45-378-144c-181-172-226-431-115-656c43-88,151-194,241-239
		c159-77,351-75,512,6c73,38,195,164,232,242l31,63l33-68c64-131,213-249,359-285c38-10,120-14,270-14c205,1,218,2,286,26
		c90,33,170,86,233,155c51,56,121,181,121,217c0,19,5,20,138,15c161-6,208-23,272-96c51-57,70-121,70-234v-88h135h135v113
		c0,174-38,286-135,391l-45,48l41,47c97,109,139,222,139,372v99h-135h-135v-68c0-96-23-165-73-219c-69-75-102-87-254-91l-133-4v346
		v346h-135h-134L5968,1103z M4515,972c47-24,105-83,131-132c14-25,19-57,19-115c0-70-4-87-29-133c-56-101-147-148-266-140
		c-150,11-249,120-250,274c0,59,5,81,28,125c31,60,103,122,161,138C4364,1005,4469,996,4515,972z"/>
</g>
</svg>
