<?xml version="1.0" encoding="utf-8"?>
<!-- Generator: Adobe Illustrator 21.0.2, SVG Export Plug-In . SVG Version: 6.00 Build 0)  -->
<svg version="1.1" id="Calque_1" xmlns="http://www.w3.org/2000/svg" xmlns:xlink="http://www.w3.org/1999/xlink" x="0px" y="0px"
	 viewBox="0 0 295 279" style="enable-background:new 0 0 295 279;" xml:space="preserve">
<style type="text/css">
	.st0{fill:#FFFFFF;}
</style>
<g>
	<g>
		<path class="st0" d="M88.8,190.7c-15.3-20.4-40.3-17.4-51.3-13c-2.6,1-3.8,3.9-2.8,6.5c1,2.6,3.9,3.8,6.5,2.8
			c0.2-0.1,24.9-9.7,39.5,9.6c0.8,1.3,9.2,15.6-0.4,34.7c-1.2,2.5-0.2,5.5,2.2,6.7c0.7,0.4,1.5,0.5,2.2,0.5c1.8,0,3.6-1,4.5-2.8
			c12.5-25,0.2-44-0.3-44.8C88.9,190.9,88.9,190.8,88.8,190.7z"/>
	</g>
	<g>
		<path class="st0" d="M113.3,170.5c3.7-1.9,7.3-4.4,10.2-7.9c5.8-6.9,7.9-15.8,6.1-26.6c-0.1-0.4-1.7-9.8-8-18.5
			c-1.8-2.5-4.1-5-7-7.3c-2-6.2-4.6-19.9,2.2-26.7c2-2,2-5.1,0-7.1c-2-2-5.1-2-7.1,0c-7.9,7.9-8.1,19.3-6.8,27.8
			c-5.2-1.5-11.5-2-19-0.7c-2.7,0.5-4.6,3-4.1,5.8c0.5,2.7,3,4.6,5.8,4.1c8.7-1.4,15.9-0.1,21.7,4c0.2,0.1,0.3,0.2,0.5,0.3
			c2,1.5,3.8,3.3,5.5,5.5c5,6.8,6.4,14.4,6.4,14.5c1.3,7.8,0,13.9-3.8,18.5c-8.1,9.6-25.2,9.8-25.3,9.8c-2.8,0-5,2.2-5,5s2.2,5,5,5
			c14.4,0,24.6,4.8,30.3,14.2c4.3,7.2,4.5,14.7,4.5,14.9c0,2.8,2.2,5,5,5c2.8,0,5-2.2,5-5C135.3,204.8,135,180.8,113.3,170.5z"/>
	</g>
	<g>
		<path class="st0" d="M142.6,1.2c-10-2-18.2-0.5-24.3,4.5c-4.5,3.7-7,8.7-8.4,13c-15-9.4-37.2-0.7-38.4-0.3
			c-0.1,0.1-0.3,0.1-0.4,0.2C59,24.8,51.3,33,48.4,43.1c-2,7-1.4,13.6-0.1,18.7c-8.4-0.9-16,1-22.6,5.7
			C0.5,85.7,0.2,140.2,0.2,142.6c0,0.2,0,0.4,0,0.6c4.6,39.4,15.6,63.2,32.7,70.5c6.7,2.9,13.1,2.7,18.5,1.5
			c-2.5,7.2-2.8,14.1-1.1,20.8c4.2,15.6,18.7,23.7,20.7,24.7c10,6,19.4,7.6,27.9,4.7c4.5-1.5,8.2-4.2,11-7c1.7,6,4.7,10.7,8.9,14.2
			c6.2,5.1,13.5,6.1,18.4,6.1c3.1,0,5.2-0.4,5.4-0.4c2.3-0.5,4-2.5,4-4.9V6.1C146.7,3.7,145,1.7,142.6,1.2z M136.7,268.7
			c-3.2-0.1-7.8-0.8-11.5-3.8c-4.6-3.8-6.9-10.5-6.9-19.9c0-2.4-1.7-4.5-4.1-4.9c-0.3-0.1-0.6-0.1-0.9-0.1c-2,0-3.9,1.2-4.6,3.1
			c0,0.1-4.2,9.9-12.9,12.8c-5.6,1.9-12.3,0.6-19.7-3.9c-0.1-0.1-0.2-0.1-0.3-0.2c-0.1-0.1-12.5-6.5-15.7-18.5
			c-2-7.6,0.1-16.2,6.2-25.4c1.4-2,1-4.7-0.7-6.4c-1.8-1.7-4.5-1.8-6.4-0.4c-0.1,0.1-11,8.1-22.2,3.3c-9.3-4-21.4-18-26.7-62.1
			c0-3,0.2-7,0.6-11.7c1.9-3.6,13.7-24.2,35.8-15.6c1.9,1,19.8,11.1,19.8,29.6c0,2.8,2.2,5,5,5s5-2.2,5-5
			c0-25.5-24.5-38.1-25.5-38.6c-0.1-0.1-0.3-0.1-0.4-0.2c-15.6-6.2-28.1-1.6-36.9,5.6c3-14.4,8.5-29,17.9-35.8
			c6-4.3,13.1-5.2,21.6-2.7c4,5.1,11.7,12.4,22.9,12.4c4.3,0,9.2-1.1,14.6-3.8c0.6-0.3,14.1-7.3,14.1-27.2c0-2.8-2.2-5-5-5
			c-2.8,0-5,2.2-5,5c0,13.5-8.3,18.1-8.6,18.3C73,79.2,64.7,71.7,61,66.8c-0.1-0.2-0.2-0.5-0.3-0.7C60.6,66,55,56.2,58,45.8
			c2.1-7.2,8-13.3,17.4-18c2.2-0.8,25-9,33.6,3.9c1.2,1.8,3.5,2.6,5.6,2c2.1-0.6,3.6-2.6,3.6-4.8c0-0.1,0.2-10.3,6.5-15.4
			c2.9-2.4,7-3.4,12-3V268.7z"/>
	</g>
</g>
<g>
	<path class="st0" d="M295,139.9C295,64.6,234.8,3.2,160,1.2v0.1c-0.4-0.1-0.8-0.2-1.3-0.2c-2.8,0-5,2.2-5,5V274c0,2.8,2.2,5,5,5
		c0.8,0,1.5-0.2,2.2-0.5C235.2,276.1,295,214.8,295,139.9z M180.8,153.4h9.6l19.2,19.2l-25.1-10.4L180.8,153.4z M193.4,188.8
		l-19.2-19.2V160l8.8,3.7L193.4,188.8z M182.9,136.8l7.8,3.2l-7.8,3.2l-3.2-3.2L182.9,136.8z M182.4,134.6l-4.2-1.8l1.8-4.2h8.5
		L182.4,134.6z M188.4,151.5H180l-1.8-4.2l4.2-1.8L188.4,151.5z M184.3,144.7l8.8-3.7l25.1,10.4h-27.2L184.3,144.7z M184.3,135.4
		l6.8-6.8h27.2L193.2,139L184.3,135.4z M190.3,126.8h-9.6l3.7-8.8l25.1-10.4L190.3,126.8z M183,116.5l-8.8,3.7v-9.6l19.2-19.2
		L183,116.5z M182,118.9l-3.2,7.8h-4.6v-4.6L182,118.9z M177.9,128.6l-1.5,3.5l-0.1-0.1c0.5,0.8,0.8,1.7,1.2,2.5l3.5,1.4l-2.4,2.4
		c0.2,1.1,0.3,2.3,0.3,3.5c0,0,0,0,0,0l2.1,2.1l-2.3,1c-0.3,1.7-0.7,3.4-1.4,4.9l0.6,1.5h-1.4c-0.3,0.6-0.7,1.3-1.1,1.9h3.3l3.2,7.8
		l-7.8-3.2V155c-0.6,0.7-1.2,1.3-1.9,1.9v0.2l-0.2-0.1c-0.5,0.5-1.1,0.9-1.7,1.3l1.9,0.8v8.5l-6-6l0.5-1.2c-1,0.4-2,0.8-3.1,1v-4
		c0.1-0.1,0.2-0.3,0.3-0.4c0.2-0.3,0.5-0.7,0.8-0.8c0.3-0.1,0.8,0,1.2,0.1c0.4,0.1,0.9,0.2,1.2,0c0.3-0.2,0.5-0.6,0.6-1
		c0.1-0.4,0.3-0.8,0.6-1c0.3-0.2,0.7-0.2,1.2-0.2c0.5,0,0.9,0,1.2-0.3c0.3-0.2,0.3-0.7,0.3-1.1c0-0.4,0.1-0.9,0.3-1.1
		c0.2-0.3,0.7-0.4,1.1-0.5c0.4-0.1,0.9-0.3,1-0.6c0.2-0.3,0.1-0.7,0-1.2c-0.1-0.4-0.1-0.9,0-1.2c0.1-0.3,0.5-0.6,0.9-0.8
		c0.4-0.3,0.8-0.5,0.9-0.8c0.1-0.3-0.1-0.7-0.3-1.2c-0.2-0.4-0.4-0.8-0.3-1.2c0.1-0.4,0.4-0.7,0.6-1c0.3-0.3,0.6-0.7,0.6-1
		c0-0.3-0.3-0.7-0.6-1c-0.3-0.3-0.6-0.7-0.6-1c0-0.4,0.2-0.7,0.4-1.1c0.2-0.4,0.4-0.8,0.3-1.2c-0.1-0.3-0.4-0.6-0.8-0.9
		c-0.3-0.2-0.7-0.5-0.8-0.8c-0.1-0.3,0-0.8,0.1-1.2c0.1-0.5,0.2-0.9,0-1.2c-0.2-0.3-0.6-0.5-1-0.6c-0.4-0.1-0.8-0.3-1-0.6
		c-0.2-0.3-0.2-0.7-0.2-1.2c0-0.5,0-0.9-0.3-1.2c-0.2-0.3-0.7-0.3-1.1-0.3c-0.4,0-0.9-0.1-1.1-0.3c-0.3-0.2-0.4-0.7-0.5-1.1
		c-0.1-0.4-0.3-0.9-0.6-1c-0.3-0.2-0.7-0.1-1.2,0c-0.5,0.1-0.9,0.1-1.2,0c-0.3-0.1-0.6-0.5-0.8-0.9c-0.2-0.4-0.5-0.8-0.8-0.9
		c-0.1,0-0.2,0-0.3,0V121l1.1-1.1l1.4,3.3c0.9,0.4,1.7,0.8,2.5,1.2l0,0l3.5-1.5v3.8H172c0.8,0.7,1.5,1.4,2.1,2.2v-0.3H177.9z
		 M163.7,161.7l0.4,0.4l-0.4,0.9V161.7z M163.7,117.1l0.4,0.9l-0.4,0.4V117.1z M163.7,167.9l1.8-4.4l6.8,6.8v27.2l-8.6-20.7V167.9z
		 M166.3,118.5l6-6v8.5l-4.2,1.8L166.3,118.5z M172.3,109.8l-6.8,6.8l-1.8-4.4v-8.9l8.6-20.7V109.8z M163.7,267.7v-85.9l8.6,20.7
		v58.5c0.6-0.1,1.3-0.1,1.9-0.2v-53.8l20.4,49.3c0.6-0.2,1.2-0.4,1.8-0.6L174.1,202v-29.9l21.1,21.1l22,53.1
		c0.6-0.3,1.1-0.6,1.6-0.9l-20.2-48.7l36.9,36.9c0.5-0.4,1-0.8,1.4-1.2l-40.2-40.2l-11.4-27.6l27.6,11.4l39.8,39.8
		c0.4-0.5,0.8-1,1.2-1.5l-36.5-36.5l47.2,19.6c0.3-0.6,0.6-1.1,0.9-1.7l-51.6-21.4L193,153.4h29.9l51.1,21.2
		c0.2-0.6,0.3-1.2,0.5-1.8l-46.7-19.4h50.2c0.1-0.6,0.1-1.2,0.2-1.9h-54.9l-27.6-11.4l27.6-11.4h54.5c-0.1-0.6-0.1-1.3-0.2-1.9
		h-49.8l45.8-19c-0.2-0.6-0.4-1.2-0.5-1.8l-50.1,20.8H193l21.1-21.1L264,85c-0.3-0.6-0.6-1.1-0.9-1.7l-45.5,18.9l34.8-34.8
		c-0.4-0.5-0.8-1-1.2-1.5L213,104.1l-27.6,11.4l11.4-27.6L235,49.7c-0.5-0.4-1-0.8-1.5-1.2l-34.8,34.8l18.9-45.6
		c-0.5-0.3-1.1-0.6-1.6-0.9l-20.7,50l-21.1,21.1V78.1L195,27.8c-0.6-0.2-1.2-0.4-1.8-0.6l-19,45.9v-50c-0.6-0.1-1.3-0.1-1.9-0.2
		v54.7l-8.6,20.7V12.1c67.2,3.8,120.6,59.7,120.6,127.8C284.3,208,230.9,263.8,163.7,267.7z"/>
</g>
</svg>
